0000.001 (0) Opened log file at time: Sat, 21 Mar 2020 04:40:41 +0000 on http://localhost/primo-project-work/wordpress
0000.006 (0) UpdraftPlus WordPress backup plugin (https://updraftplus.com): 1.16.22 WP: 5.3.2 PHP: 7.4.2 (apache2handler, Windows NT DESKTOP-KA3ERD8 10.0 build 18363 (Windows 10) AMD64) MySQL: 10.4.11-MariaDB WPLANG: it_IT Server: Apache/2.4.41 (Win64) OpenSSL/1.1.1c PHP/7.4.2 safe_mode: 0 max_execution_time: 900 memory_limit: 512M (used: 45.9M | 6M) multisite: N openssl: OpenSSL 1.1.1d  10 Sep 2019 mcrypt: N LANG:  ZipArchive::addFile: Y
0000.009 (0) Free space on disk containing Updraft's temporary directory: 326978.3 MB
0000.019 (0) Tasks: Backup files: 1 (schedule: unset) Backup DB: 1 (schedule: unset)
0000.029 (0) Requesting semaphore lock (fd) (apparently not via scheduler)
0000.041 (0) Set semaphore last lock (fd) time to 2020-03-21 04:40:41
0000.045 (0) Semaphore lock (fd) complete
0000.057 (0) Backup run: resumption=0, nonce=d0957ff26619, file_nonce=d0957ff26619 begun at=1584765641 (0s ago), job type=backup
0000.063 (0) Scheduling a resumption (1) after 300 seconds (1584765941) in case this run gets aborted
0000.086 (0) Checking if we have a zip executable available
0000.092 (0) Creation of backups of directories: beginning
0000.108 (0) Beginning creation of dump of plugins (split every: 400 MB)
0002.269 (0) Total entities for the zip file: 322 directories, 2311 files (0 skipped as non-modified), 34.7 MB
0002.332 (0) Adding batch to zip file (UpdraftPlus_ZipArchive): over 2.0 seconds have passed since the last write (1.6 MB, 61 (61) files added so far); re-opening (prior size: 0 KB)
0002.736 (0) Zip: backup_2020-03-21-0540_Centenario_Felliniano_d0957ff26619-plugins.zip.tmp: 100 files added (on-disk size: 495.8 KB)
0002.816 (0) Zip: backup_2020-03-21-0540_Centenario_Felliniano_d0957ff26619-plugins.zip.tmp: 200 files added (on-disk size: 495.8 KB)
0002.889 (0) Zip: backup_2020-03-21-0540_Centenario_Felliniano_d0957ff26619-plugins.zip.tmp: 300 files added (on-disk size: 495.8 KB)
0002.953 (0) Zip: backup_2020-03-21-0540_Centenario_Felliniano_d0957ff26619-plugins.zip.tmp: 400 files added (on-disk size: 495.8 KB)
0003.017 (0) Zip: backup_2020-03-21-0540_Centenario_Felliniano_d0957ff26619-plugins.zip.tmp: 500 files added (on-disk size: 495.8 KB)
0003.060 (0) Adding batch to zip file (UpdraftPlus_ZipArchive): over 500 files added on this batch (6.4 MB, 2311 files batched, 501 (562) added so far); re-opening (prior size: 495.8 KB)
0004.100 (0) Zip: backup_2020-03-21-0540_Centenario_Felliniano_d0957ff26619-plugins.zip.tmp: 600 files added (on-disk size: 2591.3 KB)
0004.170 (0) Zip: backup_2020-03-21-0540_Centenario_Felliniano_d0957ff26619-plugins.zip.tmp: 700 files added (on-disk size: 2591.3 KB)
0004.241 (0) Zip: backup_2020-03-21-0540_Centenario_Felliniano_d0957ff26619-plugins.zip.tmp: 800 files added (on-disk size: 2591.3 KB)
0004.309 (0) Zip: backup_2020-03-21-0540_Centenario_Felliniano_d0957ff26619-plugins.zip.tmp: 900 files added (on-disk size: 2591.3 KB)
0004.384 (0) Zip: backup_2020-03-21-0540_Centenario_Felliniano_d0957ff26619-plugins.zip.tmp: 1000 files added (on-disk size: 2591.3 KB)
0004.430 (0) Adding batch to zip file (UpdraftPlus_ZipArchive): over 500 files added on this batch (11.7 MB, 2311 files batched, 501 (1063) added so far); re-opening (prior size: 2591.3 KB)
0006.628 (0) Zip: backup_2020-03-21-0540_Centenario_Felliniano_d0957ff26619-plugins.zip.tmp: 1100 files added (on-disk size: 6382.2 KB)
0006.766 (0) Zip: backup_2020-03-21-0540_Centenario_Felliniano_d0957ff26619-plugins.zip.tmp: 1200 files added (on-disk size: 6382.2 KB)
0006.904 (0) Zip: backup_2020-03-21-0540_Centenario_Felliniano_d0957ff26619-plugins.zip.tmp: 1300 files added (on-disk size: 6382.2 KB)
0007.013 (0) Zip: backup_2020-03-21-0540_Centenario_Felliniano_d0957ff26619-plugins.zip.tmp: 1400 files added (on-disk size: 6382.2 KB)
0007.117 (0) Zip: backup_2020-03-21-0540_Centenario_Felliniano_d0957ff26619-plugins.zip.tmp: 1500 files added (on-disk size: 6382.2 KB)
0007.187 (0) Adding batch to zip file (UpdraftPlus_ZipArchive): over 500 files added on this batch (10 MB, 2311 files batched, 501 (1564) added so far); re-opening (prior size: 6382.2 KB)
0008.941 (0) Zip: backup_2020-03-21-0540_Centenario_Felliniano_d0957ff26619-plugins.zip.tmp: 1600 files added (on-disk size: 9218.6 KB)
0009.016 (0) Zip: backup_2020-03-21-0540_Centenario_Felliniano_d0957ff26619-plugins.zip.tmp: 1700 files added (on-disk size: 9218.6 KB)
0009.091 (0) Zip: backup_2020-03-21-0540_Centenario_Felliniano_d0957ff26619-plugins.zip.tmp: 1800 files added (on-disk size: 9218.6 KB)
0009.164 (0) Zip: backup_2020-03-21-0540_Centenario_Felliniano_d0957ff26619-plugins.zip.tmp: 1900 files added (on-disk size: 9218.6 KB)
0009.237 (0) Zip: backup_2020-03-21-0540_Centenario_Felliniano_d0957ff26619-plugins.zip.tmp: 2000 files added (on-disk size: 9218.6 KB)
0009.284 (0) Adding batch to zip file (UpdraftPlus_ZipArchive): over 500 files added on this batch (2.3 MB, 2311 files batched, 501 (2065) added so far); re-opening (prior size: 9218.6 KB)
0009.978 (0) Zip: backup_2020-03-21-0540_Centenario_Felliniano_d0957ff26619-plugins.zip.tmp: 2100 files added (on-disk size: 9982.1 KB)
0010.048 (0) Zip: backup_2020-03-21-0540_Centenario_Felliniano_d0957ff26619-plugins.zip.tmp: 2200 files added (on-disk size: 9982.1 KB)
0010.113 (0) Zip: backup_2020-03-21-0540_Centenario_Felliniano_d0957ff26619-plugins.zip.tmp: 2300 files added (on-disk size: 9982.1 KB)
0010.869 (0) Created plugins zip (0) - 11293.6 KB in 10.8 s (1050.4 KB/s) (sha1: aae4d86a48d866990e174c2fd7c291991bb5fc58, sha256: 4897934bb4802d14d2130c8df6209f59570d40239c0258bf901a78cb9f2330a0)
0010.879 (0) Beginning creation of dump of themes (split every: 400 MB)
0011.103 (0) Total entities for the zip file: 72 directories, 319 files (0 skipped as non-modified), 6.6 MB
0011.174 (0) Zip: backup_2020-03-21-0540_Centenario_Felliniano_d0957ff26619-themes.zip.tmp: 100 files added (on-disk size: 0 KB)
0011.244 (0) Zip: backup_2020-03-21-0540_Centenario_Felliniano_d0957ff26619-themes.zip.tmp: 200 files added (on-disk size: 0 KB)
0011.313 (0) Zip: backup_2020-03-21-0540_Centenario_Felliniano_d0957ff26619-themes.zip.tmp: 300 files added (on-disk size: 0 KB)
0012.064 (0) Created themes zip (0) - 4118.5 KB in 1.2 s (3496.5 KB/s) (sha1: 063376b7caf8d085600077814bbf921c14469005, sha256: a3690a0a3e8b3bd50c6961ce22c20ff586f241c1236e1b5a3dcf994b455de147)
0012.075 (0) Exclusion option setting (uploads): backup*,*backups,backwpup*,wp-clone,snapshots
0012.078 (0) Looking for candidates to backup in: C:\xampp\htdocs\primo-project-work\wordpress/wp-content/uploads
0012.083 (0) finding files: 2020: adding to list (1)
0012.086 (0) finding files: backup-guard: skipping: excluded by options (glob)
0012.089 (0) finding files: elementor: adding to list (2)
0012.093 (0) Beginning creation of dump of uploads (split every: 400 MB)
0012.188 (0) Total entities for the zip file: 4 directories, 157 files (0 skipped as non-modified), 19.7 MB
0012.258 (0) Zip: backup_2020-03-21-0540_Centenario_Felliniano_d0957ff26619-uploads.zip.tmp: 100 files added (on-disk size: 0 KB)
0012.829 (0) Created uploads zip (0) - 20191.4 KB in 0.7 s (27732.8 KB/s) (sha1: 84895b9df39ca8fd6e5198682ce4f2fcf4340a48, sha256: 4904241f980d88c3e5d52b0ee7feafe4a1d9a89513f4bc22d678e29a83cd0eec)
0012.839 (0) Beginning backup of other directories found in the content directory (index: 0)
0012.844 (0) Exclusion option setting (others): upgrade,cache,updraft,backup*,*backups,mysql.sql,debug.log
0012.847 (0) Looking for candidates to backup in: C:\xampp\htdocs\primo-project-work\wordpress/wp-content
0012.851 (0) finding files: gallery: adding to list (1)
0012.855 (0) finding files: index.php: adding to list (2)
0012.858 (0) finding files: languages: adding to list (3)
0012.863 (0) finding files: ngg: adding to list (4)
0012.866 (0) finding files: plugins: skipping: this is the plugins directory
0012.870 (0) finding files: themes: skipping: this is the themes directory
0012.873 (0) finding files: updraft: skipping: this is the updraft directory
0012.877 (0) finding files: upgrade: skipping: excluded by options
0012.880 (0) finding files: uploads: skipping: this is the uploads directory
0012.967 (0) Total entities for the zip file: 43 directories, 81 files (0 skipped as non-modified), 5.7 MB
0014.082 (0) Created others zip (0) - 1552.3 KB in 1.2 s (1299.7 KB/s) (sha1: 0d20324b697f0e77e13efa9cd846a0233dfd6d34, sha256: fabff98cda7c3fe52c43be2763b86cf935b48688e0d8500f7a4511a5de54f217)
0014.102 (0) Saving backup status to database (elements: 8)
0014.110 (0) Beginning creation of database dump (WordPress DB)
0014.145 (0) Table wp_options: Total expected rows (approximate): 260
0014.266 (0) Table wp_options: Total rows added: 260 in 0.12 seconds
0014.338 (0) Table wp_options: finishing file (backup_2020-03-21-0540_Centenario_Felliniano_d0957ff26619-db-table-wp_options.table.gz - 140.4 KB)
0014.377 (0) Table wp_users: Total expected rows (approximate): 2
0014.425 (0) Table wp_users: Total rows added: 2 in 0.04 seconds
0014.438 (0) Table wp_users: finishing file (backup_2020-03-21-0540_Centenario_Felliniano_d0957ff26619-db-table-wp_users.table.gz - 0.6 KB)
0014.455 (0) Table wp_usermeta: Total expected rows (approximate): 47
0014.483 (0) Table wp_usermeta: Total rows added: 47 in 0.03 seconds
0014.495 (0) Table wp_usermeta: finishing file (backup_2020-03-21-0540_Centenario_Felliniano_d0957ff26619-db-table-wp_usermeta.table.gz - 1.5 KB)
0014.509 (0) Table wp_commentmeta: Total expected rows (approximate): 0
0014.529 (0) Table wp_commentmeta: Total rows added: 0 in 0.02 seconds
0014.540 (0) Table wp_commentmeta: finishing file (backup_2020-03-21-0540_Centenario_Felliniano_d0957ff26619-db-table-wp_commentmeta.table.gz - 0.4 KB)
0014.554 (0) Table wp_comments: Total expected rows (approximate): 1
0014.579 (0) Table wp_comments: Total rows added: 1 in 0.02 seconds
0014.591 (0) Table wp_comments: finishing file (backup_2020-03-21-0540_Centenario_Felliniano_d0957ff26619-db-table-wp_comments.table.gz - 0.8 KB)
0014.606 (0) Table wp_links: Total expected rows (approximate): 0
0014.630 (0) Table wp_links: Total rows added: 0 in 0.02 seconds
0014.640 (0) Table wp_links: finishing file (backup_2020-03-21-0540_Centenario_Felliniano_d0957ff26619-db-table-wp_links.table.gz - 0.4 KB)
0014.656 (0) Table wp_postmeta: Total expected rows (approximate): 614
0014.700 (0) Table wp_postmeta: Total rows added: 614 in 0.04 seconds
0014.715 (0) Table wp_postmeta: finishing file (backup_2020-03-21-0540_Centenario_Felliniano_d0957ff26619-db-table-wp_postmeta.table.gz - 12.2 KB)
0014.730 (0) Table wp_posts: Total expected rows (approximate): 163
0014.812 (0) Table wp_posts: Total rows added: 181 in 0.08 seconds
0014.825 (0) Table wp_posts: finishing file (backup_2020-03-21-0540_Centenario_Felliniano_d0957ff26619-db-table-wp_posts.table.gz - 40.5 KB)
0014.840 (0) Table wp_term_relationships: Total expected rows (approximate): 99
0014.873 (0) Table wp_term_relationships: Total rows added: 99 in 0.03 seconds
0014.885 (0) Table wp_term_relationships: finishing file (backup_2020-03-21-0540_Centenario_Felliniano_d0957ff26619-db-table-wp_term_relationships.table.gz - 0.6 KB)
0014.899 (0) Table wp_term_taxonomy: Total expected rows (approximate): 48
0014.929 (0) Table wp_term_taxonomy: Total rows added: 48 in 0.03 seconds
0014.941 (0) Table wp_term_taxonomy: finishing file (backup_2020-03-21-0540_Centenario_Felliniano_d0957ff26619-db-table-wp_term_taxonomy.table.gz - 0.9 KB)
0014.955 (0) Table wp_termmeta: Total expected rows (approximate): 0
0014.975 (0) Table wp_termmeta: Total rows added: 0 in 0.02 seconds
0014.986 (0) Table wp_termmeta: finishing file (backup_2020-03-21-0540_Centenario_Felliniano_d0957ff26619-db-table-wp_termmeta.table.gz - 0.4 KB)
0015.000 (0) Table wp_terms: Total expected rows (approximate): 48
0015.022 (0) Table wp_terms: Total rows added: 48 in 0.02 seconds
0015.033 (0) Table wp_terms: finishing file (backup_2020-03-21-0540_Centenario_Felliniano_d0957ff26619-db-table-wp_terms.table.gz - 1 KB)
0015.047 (0) Table wp_ngg_album: Total expected rows (approximate): 0
0015.078 (0) Table wp_ngg_album: Total rows added: 0 in 0.03 seconds
0015.088 (0) Table wp_ngg_album: finishing file (backup_2020-03-21-0540_Centenario_Felliniano_d0957ff26619-db-table-wp_ngg_album.table.gz - 0.4 KB)
0015.103 (0) Table wp_ngg_gallery: Total expected rows (approximate): 0
0015.125 (0) Table wp_ngg_gallery: Total rows added: 0 in 0.02 seconds
0015.141 (0) Table wp_ngg_gallery: finishing file (backup_2020-03-21-0540_Centenario_Felliniano_d0957ff26619-db-table-wp_ngg_gallery.table.gz - 0.4 KB)
0015.156 (0) Table wp_ngg_pictures: Total expected rows (approximate): 0
0015.177 (0) Table wp_ngg_pictures: Total rows added: 0 in 0.02 seconds
0015.188 (0) Table wp_ngg_pictures: finishing file (backup_2020-03-21-0540_Centenario_Felliniano_d0957ff26619-db-table-wp_ngg_pictures.table.gz - 0.5 KB)
0015.203 (0) backup_2020-03-21-0540_Centenario_Felliniano_d0957ff26619-db-table-wp_options.table.gz (1/15): adding to final database dump
0015.259 (0) backup_2020-03-21-0540_Centenario_Felliniano_d0957ff26619-db-table-wp_users.table.gz (2/15): adding to final database dump
0015.263 (0) backup_2020-03-21-0540_Centenario_Felliniano_d0957ff26619-db-table-wp_usermeta.table.gz (3/15): adding to final database dump
0015.267 (0) backup_2020-03-21-0540_Centenario_Felliniano_d0957ff26619-db-table-wp_commentmeta.table.gz (4/15): adding to final database dump
0015.271 (0) backup_2020-03-21-0540_Centenario_Felliniano_d0957ff26619-db-table-wp_comments.table.gz (5/15): adding to final database dump
0015.275 (0) backup_2020-03-21-0540_Centenario_Felliniano_d0957ff26619-db-table-wp_links.table.gz (6/15): adding to final database dump
0015.279 (0) backup_2020-03-21-0540_Centenario_Felliniano_d0957ff26619-db-table-wp_postmeta.table.gz (7/15): adding to final database dump
0015.290 (0) backup_2020-03-21-0540_Centenario_Felliniano_d0957ff26619-db-table-wp_posts.table.gz (8/15): adding to final database dump
0015.314 (0) backup_2020-03-21-0540_Centenario_Felliniano_d0957ff26619-db-table-wp_term_relationships.table.gz (9/15): adding to final database dump
0015.320 (0) backup_2020-03-21-0540_Centenario_Felliniano_d0957ff26619-db-table-wp_term_taxonomy.table.gz (10/15): adding to final database dump
0015.327 (0) backup_2020-03-21-0540_Centenario_Felliniano_d0957ff26619-db-table-wp_termmeta.table.gz (11/15): adding to final database dump
0015.332 (0) backup_2020-03-21-0540_Centenario_Felliniano_d0957ff26619-db-table-wp_terms.table.gz (12/15): adding to final database dump
0015.336 (0) backup_2020-03-21-0540_Centenario_Felliniano_d0957ff26619-db-table-wp_ngg_album.table.gz (13/15): adding to final database dump
0015.340 (0) backup_2020-03-21-0540_Centenario_Felliniano_d0957ff26619-db-table-wp_ngg_gallery.table.gz (14/15): adding to final database dump
0015.344 (0) backup_2020-03-21-0540_Centenario_Felliniano_d0957ff26619-db-table-wp_ngg_pictures.table.gz (15/15): adding to final database dump
0015.365 (0) backup_2020-03-21-0540_Centenario_Felliniano_d0957ff26619-db.gz: finished writing out complete database file (184 KB)
0015.401 (0) Total database tables backed up: 15 (backup_2020-03-21-0540_Centenario_Felliniano_d0957ff26619-db.gz, size: 202358, sha1: 43d61dd7b282f7985eb8e02e8520acd0669a4e0e, sha256: fbb4fd3376e7407ef69aa9e33f2473b9ad3ff5a9036e9d60197fef6a0fc37355)
0015.418 (0) backup_2020-03-21-0540_Centenario_Felliniano_d0957ff26619-plugins.zip: plugins: This file has not yet been successfully uploaded: will queue
0015.421 (0) backup_2020-03-21-0540_Centenario_Felliniano_d0957ff26619-themes.zip: themes: This file has not yet been successfully uploaded: will queue
0015.425 (0) backup_2020-03-21-0540_Centenario_Felliniano_d0957ff26619-uploads.zip: uploads: This file has not yet been successfully uploaded: will queue
0015.429 (0) backup_2020-03-21-0540_Centenario_Felliniano_d0957ff26619-others.zip: others: This file has not yet been successfully uploaded: will queue
0015.432 (0) backup_2020-03-21-0540_Centenario_Felliniano_d0957ff26619-db.gz: db: This file has not yet been successfully uploaded: will queue
0015.435 (0) Saving backup history. Total backup size: 36.5 MB
0015.443 (0) Requesting upload of the files that have not yet been successfully uploaded (5)
0015.453 (0) Cloud backup selection (1/1): none with instance (1/1) (last)
0015.456 (0) No remote despatch: user chose no remote backup service
0015.460 (0) Recording as successfully uploaded: backup_2020-03-21-0540_Centenario_Felliniano_d0957ff26619-plugins.zip
0015.467 (0) Recording as successfully uploaded: backup_2020-03-21-0540_Centenario_Felliniano_d0957ff26619-themes.zip
0015.473 (0) Recording as successfully uploaded: backup_2020-03-21-0540_Centenario_Felliniano_d0957ff26619-uploads.zip
0015.479 (0) Recording as successfully uploaded: backup_2020-03-21-0540_Centenario_Felliniano_d0957ff26619-others.zip
0015.485 (0) Recording as successfully uploaded: backup_2020-03-21-0540_Centenario_Felliniano_d0957ff26619-db.gz
0015.497 (0) Retain: beginning examination of existing backup sets; user setting: retain_files=2, retain_db=2
0015.501 (0) Number of backup sets in history: 1; groups (db): 1
0015.504 (0) Examining (for databases) backup set with group_id=0, nonce=d0957ff26619, datestamp=1584765641 (Mar 21 2020 04:40:41)
0015.507 (0) This backup set is the backup set just made, so will not be deleted.
0015.507 (0) Number of backup sets in history: 1; groups (files): 1
0015.510 (0) Examining (for files) backup set with nonce=d0957ff26619, datestamp=1584765641 (Mar 21 2020 04:40:41)
0015.510 (0) This backup set is the backup set just made, so will not be deleted.
0015.515 (0) This backup set is the backup set just made, so will not be deleted.
0015.515 (0) This backup set is the backup set just made, so will not be deleted.
0015.516 (0) This backup set is the backup set just made, so will not be deleted.
0015.516 (0) This backup set remains non-empty (f=1/d=1); will retain in history
0015.519 (0) Retain: saving new backup history (sets now: 1) and finishing retain operation
0015.526 (0) Resume backup (d0957ff26619, 0): finish run
0015.534 (0) Decremented the semaphore (fd) by 1
0015.538 (0) Semaphore (fd) unlocked
0015.541 (0) There were no errors in the uploads, so the 'resume' event (1) is being unscheduled
0015.551 (0) The backup apparently succeeded and is now complete
0015.554 (0) No email will/can be sent - the user has not configured an email address.
0015.557 (0) Il backup apparentemente è riuscito ed ora è completo
